<?xml version="1.0" encoding="utf-8"?>
<!-- Generator: Adobe Illustrator 21.0.0, SVG Export Plug-In . SVG Version: 6.00 Build 0)  -->
<svg version="1.1" id="Layer_1" xmlns="http://www.w3.org/2000/svg" xmlns:xlink="http://www.w3.org/1999/xlink" x="0px" y="0px"
	 viewBox="0 0 15 27" style="enable-background:new 0 0 15 27;" xml:space="preserve" preserveAspectRatio="none" height="100%" width="100%">
<style type="text/css">
	.st0{fill:#F8F6F6;}
</style>
<path class="st0" d="M15,27C7.2680001,27,1,20.9559002,1,13.5V27H15z"/>
<path class="st0" d="M1,0H0v27h1V13.5C1,6.0441895,7.2680054,0,15,0H1z"/>
</svg>
